{
    "lbBtnAdicionar": "Adicionar",
    "lbBtnModificar": "Modificar",
    "lbBtnEliminar": "Eliminar",
    "lbBtnBuscar": "Buscar",
    "lbBtnAyuda": "Ayuda",
    "lbBtnCancelar": "Cancelar",
    "lbBtnAplicar": "Aplicar",
    "lbBtnAceptar": "Aceptar",

    "lbHdrCodMateria": "C&oacute;digo materia",
    //"lbHdrTraduccion": "Traducci&oacute;n",
    "lbHdrDescripcion": "Descripci&oacute;n",
    "lbHdrDescripcionCarrera": "Carrera",
    "lbHdrEstado": "Activado",

    //"lbTtlLista": "Listado de materias",
    //"lbTtlAdicionar": "Adicionar materia",
    //"lbTtlEditar": "Modificar materia",

    "lbMsgInfAdicionar": "Materia adicionada satisfactoriamente",
    "lbMsgInfAdicionarM": "Materias adicionadas satisfactoriamente",
    "lbMsgInfEliminar": "Materia eliminada satisfactoriamente",

    "lbEmpTextBusqueda":"Criterio de b&uacute;squeda",
    "lbEmpCombo":"--Seleccione--",

    "lbMsgConfEliminar": "Seguro de querer eliminar la materia"
}