
{lbBtnAdicionar:'Adicionar',
    lbBtnModificar:'Modificar',
    lbBtnAyuda:'Ayuda',
    lbBtnCancelar:'Cancelar',
    lbBtnAplicar:'Aplicar',
    lbBtnAceptar:'Aceptar',
    lbBtnEliminar:'Eliminar',
    lbBtnBuscar:'Buscar',
    lbTitVentanaTitI:'Adicionar horario',
    lbTitVentanaTitII:'Modificar horario',
    lbMsgbbarI:'Resultados {0} - {1} de {2}',
    lbMsgbbarII:'Ning&uacute;n resultado para mostrar.',
    lbMsgBlank:'Este campo es obligatorio.',
    lbMsgregexI:'Solo puede entrar valores enteros num&eacute;ricos.',
    lbMsgFunAdicionarMsg:'Registrando horario...',
    lbMsgErrorEnCamops:'Existen campos obligatiorios en blanco.',
    lbMsgFunModificarMsg:'Modificando horario...',
    lbMsgInfAdicionar: 'Horario insertado satisfactoriamente.',
    lbMsgInfModificar: 'Horario modificado satisfactoriamente.',
    lbMsgInfEliminar: 'Horario eliminado satisfactoriamente.'}