{
    "lbBtnAdicionar":"Adicionar",
    "lbBtnModificar":"Modificar",
    "lbBtnEliminar":"Eliminar",
    "lbBtnBuscar":"Buscar",
    "lbBtnAyuda":"Ayuda",
    "lbBtnCancelar":"Cancelar",
    "lbBtnAplicar":"Aplicar",
    "lbBtnAceptar":"Aceptar",

    "lbHdrDescripcion":"Descripci&oacute;n",
    "lbHdrAreaGen":"&Aacute;rea general",
    "lbHdrEstado":"Activado",

    "lbEstadoActivada":"Activada",
    "lbEstadoDesactivada":"Desactivada",

    "lbTtlLista":"Listado de &aacute;reas",
    "lbTtlAdicionar":"Adicionar &aacute;rea",
    "lbTtlModificar":"Modificar &aacute;rea",

    "lbMsgInfAdicionar":"&Aacute;rea adicionada satisfactoriamente",
    "lbMsgInfModificar":"&Aacute;rea modificada satisfactoriamente",
    "lbMsgInfEliminar":"&Aacute;rea eliminada satisfactoriamente",

    "lbEmpTextBusqueda":"Criterio de b&uacute;squeda",
    //"lbEmpCombo":"--Seleccione--",

    "lbMsgConfEliminar":"Seguro de querer eliminar el &aacute;rea"
}