{
    "lbBtnAdicionar": "Adicionar",
    "lbBtnModificar": "Modificar",
    "lbBtnCancelar": "Cancelar",
    "lbBtnAplicar": "Aplicar",
    "lbBtnAceptar": "Aceptar",
    "lbBtnReload": "Recargar",
    "lbMsgbbarI": "Resultados {0} - {1} de {2}",
    "lbBtnEliminar": "Eliminar",
    "lbBtnBuscar": "Buscar",
    "lbConfirme": "Confirmar",
    "lbSeleccione": "Seleccione..."

}