
{lbBtnAdicionar:'Adicionar',
lbBtnModificar:'Modificar',
lbBtnAyuda:'Ayuda',
lbBtnCancelar:'Cancelar',
lbBtnAplicar:'Aplicar',
lbBtnAceptar:'Aceptar',
lbTitDiasCaducidad:'D&iacute;as de caducidad',
lbTitFieldSet:'Tipos de caracteres:',
lbTitMinCaracteres:'M&iacute;nimo de caracteres',
lbTitAlfabetico:'Alfab&eacute;tico',
lbTitSignos:'Signos',
lbTitNumerico:'Num&eacute;rico',
lbTitVentanaTitI:'Adicionar clave',
lbTitVentanaTitII:'Modificar clave',
lbTitPanelTit:'Gestionar nomenclador de claves',
lbBLNumerico:'Num&eacute;rico',
lbBLAlfabetico:'Alfab&eacute;tico',
lbBLSignos:'Signos',
lbFLMinCaracteres:'M&iacute;nimo de caracteres',
lbFLDiasCaducidad:'D&iacute;as de caducidad',
lbMsgbbarI:'Resultados {0} - {1} de {2}',
lbMsgbbarII:'Ning&uacute;n resultado para mostrar.',
lbMsgBlank:'Este campo es obligatorio.',
lbMsgregexI:'Solo puede entrar valores enteros num&eacute;ricos.',
lbMsgFunAdicionarMsg:'Registrando clave...',
lbMsgErrorEnCamops:'Existen campos obligatiorios en blanco.',
lbMsgFunModificarMsg:'Modificando clave...',
lbBtnEliminar:'Eliminar',
lbMsgInfAdicionar:'El tipo de pasant&iacute;a se ha insertado correctamente.',
lbMsgInfModificar:'El  tipo de pasant&iacute;a se ha modificado correctamente.',
MsgInfEliminar:'La eliminaci&oacute;n ocurri&oacute; correctamente.',
lbMsgModificando:'Espere mientras se modifican los datos.',
lbMsgRegistrando:'Espere mientras se registran los datos.',
lbBtnBuscar:'Buscar',
lbMsgFunValidaMsg:'Debe seleccionar al menos un tipo de caracter.'}