{
    "lbBtnAdicionar": "Adicionar",
    "lbBtnCancelar": "Cancelar",
    "lbBtnAceptar": "Aceptar",
    "lbBtnEliminar": "Eliminar",
    "lbBtnBuscar": "Buscar",
    "lbBtnPreview": "Vista previa",
    "lbConfirme": "Confirmar",

    "ttpBtnAdicionar": "Adicionar conciliación",
    "ttpBtnEliminar": "Eliminar conciliación",
    "ttpBtnPreview": "Vista previa de la conciliación",
    "ttpBtnCancelar": "Cierra la ventana sin guardar datos",
    "ttpBtnAceptar": "Guarda los datos y cierra la ventana",

    "msgEmptyTextSearch": "Buscar...",
    "msgConfirmDelConcil": "¿Está seguro que desea eliminar la conciliación seleccionada?",
    "msgGuardado" : "La conciliación ha sido guardada satisfactoriamente.",
    "msgEliminada" : "La conciliación ha sido eliminada satisfactoriamente.",
    "msgUso": "La conciliación no se ha podido eliminar porque se encuentra en uso",

    "lbNoEstadoCta": "No. estado de cuenta",
    "lbFecha": "Fecha",
    "lbCtaBancaria": "Cuenta bancaria",
    "lbSaldo": "Saldo",
    "lbDiferencia": "Diferencia",
    "lbCorreccion": "Corrección",
    "lbConciliado": "Conciliado",
    "lbConciliar": "Conciliar",
    "lbSaldoEstadoCta": "Saldo estado de cuenta",
    "lbSaldoCtaBancaria": "Saldo en banco",
    "lbSaldoLibro": "Saldo en libro",
    "lbTipo": "Tipo transacción",
    "lbNumero": "Número",
    "lbDebito": "Débito",
    "lbCredito": "Crédito",
    "lbDescripcion": "Descripción",
    "lbDifAcumulada": "Diferencia acumulada",
    "lbCorrDeb": "Corregir débito",
    "lbCorrCred": "Corregir crédito",

    "lbTransNoConcil": "Listado de transacciones no conciliadas",
    "lbWinAddConciliacion": "Adicionar conciliación"
}