
{lbBtnAdicionar:'Adicionar',

lbBtnModificar:'Modificar',
lbBtnEliminar:'Eliminar',
lbRootNode:'Periodos',
lbBtnAyuda:'Ayuda',
lbBtnCancelar:'Cancelar',
lbBtnAplicar:'Aplicar',
lbBtnAceptar:'Aceptar',
lbTitDiasCaducidad:'D&iacute;as de caducidad',
lbTitFieldSet:'Tipos de caracteres:',
lbTitMinCaracteres:'M&iacute;nimo de caracteres',
lbTitAlfabetico:'Alfab&eacute;tico',
lbTitSignos:'Signos',
lbTitNumerico:'Num&eacute;rico',
lbTitVentanaTitI:'Adicionar horario al periodo',
lbTitVentanaTitII:'Modificar horario al periodo',
lbTitPanelTit:'Gestionar nomenclador de claves',
lbBLNumerico:'Num&eacute;rico',
lbBLAlfabetico:'Alfab&eacute;tico',
lbBLSignos:'Signos',
lbFLMinCaracteres:'M&iacute;nimo de caracteres',
lbFLDiasCaducidad:'D&iacute;as de caducidad',
lbMsgbbarI:'Resultados {0} - {1} de {2}',
lbMsgbbarII:'Ning&uacute;n resultado para mostrar.',
lbMsgBlank:'Este campo es obligatorio.',
lbMsgregexI:'Solo puede entrar valores enteros num&eacute;ricos.',
lbMsgFunAdicionarMsg:'Registrando clave...',
lbMsgErrorEnCamops:'Existen campos obligatiorios en blanco.',
lbMsgEliminarAsoc:'¿Desea eliminar este horario?',
lbMsgInfAdicionar:'Se ha asociado correctamente el(los) horario(s) al periodo',
lbMsgInfEliminar:'Se ha(n) eliminado correctamente el(los) horario(s) al periodo',
lbMsgFunModificarMsg:'Modificando clave...',
lbMsgRegistrandoHorario:'Adicionando...',
lbMsgInfModificar:'Se ha modificado correctamente',
lbMsgFunValidaMsg:'Debe seleccionar al menos un tipo de caracter.'
}